SOD compiled figure and tables–relative abundance
…
## 
## $data
## # A tibble: 28 × 7
##    Fire_Mod    Genus    Mean_Relative_Abunda…¹ Standard_Deviation Standard_Error
##    <fct>       <chr>                     <dbl>              <dbl>          <dbl>
##  1 Unmitigated Globisp…                 0.363              0.338          0.0549
##  2 Unmitigated Pythium                  0.146              0.212          0.0344
##  3 Unmitigated Phytopy…                 0.120              0.240          0.0389
##  4 Unmitigated Achlya                   0.117              0.216          0.0350
##  5 Unmitigated Phytoph…                 0.0642             0.193          0.0313
##  6 Unmitigated Saprole…                 0.0529             0.187          0.0304
##  7 Unmitigated Halophy…                 0.0428             0.134          0.0217
##  8 Unmitigated Lagenid…                 0.0415             0.166          0.0269
##  9 Unmitigated Elongis…                 0.0252             0.128          0.0207
## 10 Unmitigated Aphanom…                 0.0244             0.0640         0.0104
## # ℹ 18 more rows
## # ℹ abbreviated name: ¹​Mean_Relative_Abundance
## # ℹ 2 more variables: Sample_Size <dbl>, Prevalence_Percent <dbl>
## 
## $ps
## phyloseq-class experiment-level object
## otu_table()   OTU Table:         [ 12 taxa and 87 samples ]
## sample_data() Sample Data:       [ 87 samples by 25 sample variables ]
## tax_table()   Taxonomy Table:    [ 12 taxa by 16 taxonomic ranks ]
…
## 
## $data
## # A tibble: 59 × 7
##    Fire_Mod    Species  Mean_Relative_Abunda…¹ Standard_Deviation Standard_Error
##    <fct>       <chr>                     <dbl>              <dbl>          <dbl>
##  1 Unmitigated Globisp…                 0.134              0.261          0.0423
##  2 Unmitigated Globisp…                 0.120              0.262          0.0425
##  3 Unmitigated Achlya_…                 0.117              0.216          0.0350
##  4 Unmitigated Phytopy…                 0.0668             0.217          0.0353
##  5 Unmitigated Phytoph…                 0.0496             0.189          0.0307
##  6 Unmitigated Pythium…                 0.0493             0.132          0.0213
##  7 Unmitigated Saprole…                 0.0491             0.174          0.0283
##  8 Unmitigated Halophy…                 0.0426             0.134          0.0217
##  9 Unmitigated Lagenid…                 0.0415             0.166          0.0269
## 10 Unmitigated Globisp…                 0.0327             0.0777         0.0126
## # ℹ 49 more rows
## # ℹ abbreviated name: ¹​Mean_Relative_Abundance
## # ℹ 2 more variables: Sample_Size <dbl>, Prevalence_Percent <dbl>
## 
## $ps
## phyloseq-class experiment-level object
## otu_table()   OTU Table:         [ 36 taxa and 87 samples ]
## sample_data() Sample Data:       [ 87 samples by 25 sample variables ]
## tax_table()   Taxonomy Table:    [ 36 taxa by 16 taxonomic ranks ]
…
