SOD compiled figure and tables–relative abundance
…
## 
## $data
## # A tibble: 28 × 12
##    Fire_Mod Kingdom      Phylum  Class Order Family Genus Mean_Relative_Abunda…¹
##    <fct>    <chr>        <chr>   <chr> <chr> <chr>  <chr>                  <dbl>
##  1 SOD-UT   Stramenopila Oomyco… Oomy… Pyth… Pythi… Glob…                 0.363 
##  2 SOD-UT   Stramenopila Oomyco… Oomy… Pyth… Pythi… Pyth…                 0.146 
##  3 SOD-UT   Stramenopila Oomyco… Oomy… Pyth… Pythi… Phyt…                 0.120 
##  4 SOD-UT   Stramenopila Oomyco… Oomy… Sapr… Sapro… Achl…                 0.117 
##  5 SOD-UT   Stramenopila Oomyco… Oomy… Pero… Peron… Phyt…                 0.0642
##  6 SOD-UT   Stramenopila Oomyco… Oomy… Sapr… Sapro… Sapr…                 0.0529
##  7 SOD-UT   Stramenopila Oomyco… Oomy… Pyth… Pythi… Halo…                 0.0428
##  8 SOD-UT   Stramenopila Oomyco… Oomy… Lage… Lagen… Lage…                 0.0415
##  9 SOD-UT   Stramenopila Oomyco… Oomy… Pyth… Pythi… Elon…                 0.0252
## 10 SOD-UT   Stramenopila Oomyco… Oomy… Sapr… Lepto… Apha…                 0.0244
## # ℹ 18 more rows
## # ℹ abbreviated name: ¹​Mean_Relative_Abundance
## # ℹ 4 more variables: Standard_Deviation <dbl>, Standard_Error <dbl>,
## #   Sample_Size <dbl>, Prevalence_Percent <dbl>
## 
## $ps
## phyloseq-class experiment-level object
## otu_table()   OTU Table:         [ 22 taxa and 87 samples ]
## sample_data() Sample Data:       [ 87 samples by 25 sample variables ]
…
## 
## $data
## # A tibble: 58 × 13
##    Fire_Mod Kingdom      Phylum   Class     Order          Family  Genus Species
##    <fct>    <chr>        <chr>    <chr>     <chr>          <chr>   <chr> <chr>  
##  1 SOD-UT   Stramenopila Oomycota Oomycetes Pythiales      Pythia… Glob… Globis…
##  2 SOD-UT   Stramenopila Oomycota Oomycetes Pythiales      Pythia… Glob… Globis…
##  3 SOD-UT   Stramenopila Oomycota Oomycetes Saprolegniales Saprol… Achl… Achlya…
##  4 SOD-UT   Other        Other    Other     Other          Other   Other Other  
##  5 SOD-UT   Stramenopila Oomycota Oomycetes Pythiales      Pythia… Phyt… Phytop…
##  6 SOD-UT   Stramenopila Oomycota Oomycetes Peronosporales Perono… Phyt… Phytop…
##  7 SOD-UT   Stramenopila Oomycota Oomycetes Pythiales      Pythia… Pyth… Pythiu…
##  8 SOD-UT   Stramenopila Oomycota Oomycetes Saprolegniales Saprol… Sapr… Saprol…
##  9 SOD-UT   Stramenopila Oomycota Oomycetes Pythiales      Pythia… Halo… Haloph…
## 10 SOD-UT   Stramenopila Oomycota Oomycetes Lagenidiales   Lageni… Lage… Lageni…
## # ℹ 48 more rows
## # ℹ 5 more variables: Mean_Relative_Abundance <dbl>, Standard_Deviation <dbl>,
## #   Standard_Error <dbl>, Sample_Size <dbl>, Prevalence_Percent <dbl>
## 
## $ps
## phyloseq-class experiment-level object
## otu_table()   OTU Table:         [ 112 taxa and 87 samples ]
## sample_data() Sample Data:       [ 87 samples by 25 sample variables ]
## tax_table()   Taxonomy Table:    [ 112 taxa by 16 taxonomic ranks ]
…
